{
  "version": 1,
  "automatically created by": "elm-review suppress",
  "learn more": "elm-review suppress --help",
  "suppressions": [
    { "count": 1, "filePath": "src/Discoslab/Effect.elm" }
  ]
}
