{
  "version": 1,
  "automatically created by": "elm-review suppress",
  "learn more": "elm-review suppress --help",
  "suppressions": [
    { "count": 3, "filePath": "tests/Discoslab/Test/Model.elm" },
    { "count": 2, "filePath": "src/Discoslab/Url/BasePath.elm" },
    { "count": 1, "filePath": "src/Discoslab/Monad/State.elm" },
    { "count": 1, "filePath": "src/Discoslab/Ui/Button.elm" },
    { "count": 1, "filePath": "src/Discoslab/Ui/Fields/Text.elm" },
    { "count": 1, "filePath": "src/Discoslab/Ui/Fields/TextArea.elm" },
    { "count": 1, "filePath": "src/Discoslab/Ui/Form.elm" },
    { "count": 1, "filePath": "src/Discoslab/Ui/Text/Heading.elm" }
  ]
}
